Jennifer Lawrence

Angelina Jolie

Michael B. Jordan

Ryan Gosling

Matthew McConaughey

Justin Bieber

Leonardo DiCaprio

Scarlett Johansson

Blake Lively

Leonardo DiCaprio

Dwayne Johnson

Ryan Gosling

Robert Downey Jr.
Chris Evans

Chris Hemsworth

Mila Kunis

Shawn Mendes

Ryan Reynolds

Scarlett Johansson

Matthew McConaughey

Brad Pitt
